<?xml version="1.0" encoding="iso-8859-1"?>
<!-- Generator: Adobe Illustrator 19.0.0, SVG Export Plug-In . SVG Version: 6.00 Build 0)  -->
<svg version="1.1" id="Layer_1" xmlns="http://www.w3.org/2000/svg" xmlns:xlink="http://www.w3.org/1999/xlink" x="0px" y="0px"
	 viewBox="0 0 512 512" style="enable-background:new 0 0 512 512;" xml:space="preserve">
<g>
	<g>
		<g>
			<path d="M119.467,85.333h150.065l-28.099,28.099c-3.332,3.333-3.332,8.735,0,12.068c3.333,3.332,8.735,3.332,12.068,0
				l42.667-42.667c0.199-0.199,0.387-0.408,0.565-0.625c0.081-0.099,0.152-0.203,0.228-0.304c0.091-0.121,0.185-0.24,0.269-0.366
				c0.081-0.121,0.151-0.247,0.226-0.372c0.069-0.115,0.141-0.227,0.204-0.345c0.068-0.127,0.125-0.257,0.186-0.387
				c0.058-0.123,0.119-0.244,0.172-0.37c0.052-0.127,0.095-0.257,0.141-0.385c0.048-0.134,0.099-0.266,0.141-0.403
				c0.039-0.129,0.067-0.259,0.1-0.389c0.035-0.14,0.074-0.278,0.103-0.421c0.03-0.149,0.047-0.3,0.069-0.45
				c0.018-0.125,0.042-0.248,0.054-0.375c0.055-0.56,0.055-1.124,0-1.684c-0.012-0.127-0.036-0.251-0.054-0.376
				c-0.022-0.15-0.039-0.3-0.068-0.449c-0.028-0.143-0.068-0.282-0.103-0.422c-0.033-0.13-0.061-0.26-0.1-0.388
				c-0.042-0.137-0.093-0.269-0.141-0.404c-0.046-0.129-0.088-0.258-0.141-0.385c-0.052-0.126-0.114-0.247-0.172-0.37
				c-0.061-0.129-0.118-0.259-0.186-0.386c-0.064-0.119-0.136-0.232-0.205-0.347c-0.074-0.124-0.144-0.249-0.224-0.369
				c-0.085-0.127-0.179-0.246-0.271-0.368c-0.076-0.101-0.146-0.204-0.226-0.303c-0.179-0.218-0.367-0.427-0.566-0.626
				l-42.666-42.666c-3.333-3.332-8.735-3.332-12.068,0c-3.332,3.332-3.332,8.735,0,12.068l28.099,28.099H119.467
				c-4.713,0-8.533,3.82-8.533,8.533S114.754,85.333,119.467,85.333z"/>
			<path d="M503.467,76.801H460.8c-4.713,0-8.533,3.82-8.533,8.533v76.798h-8.678c-14.048,0-25.455,11.407-25.455,25.455v188.015
				c0,14.055,11.405,25.464,25.455,25.464h8.678v76.802c0,4.713,3.821,8.533,8.533,8.533h42.667c4.713,0,8.533-3.82,8.533-8.533
				V85.334C512,80.621,508.18,76.801,503.467,76.801z M443.588,383.999c-4.623,0-8.388-3.766-8.388-8.397V187.587
				c0-4.623,3.766-8.388,8.388-8.388h8.678v204.8H443.588z M494.933,469.334h-25.6v-76.802V170.666V93.868h25.6V469.334z"/>
			<path d="M375.467,255.999c14.134,0,25.6-11.466,25.6-25.6c0-14.134-11.466-25.6-25.6-25.6h-76.8v-17.067
				c0-14.134-11.466-25.6-25.6-25.6c-11.47,0-21.182,7.552-24.436,17.952l-107.188,13.906
				c-17.059,1.256-31.317,12.886-36.719,28.585l-63.115,7.889c-4.27,0.534-7.475,4.164-7.475,8.467v17.068h-25.6
				c-4.713,0-8.533,3.82-8.533,8.533v34.133c0,4.713,3.82,8.533,8.533,8.533h25.6v17.065c0,4.304,3.205,7.934,7.475,8.467
				l63.12,7.89c5.42,15.702,19.76,27.34,37.185,28.625l106.718,13.866c3.254,10.4,12.966,17.952,24.436,17.952
				c14.134,0,25.6-11.466,25.6-25.6v-17.067h76.8c14.134,0,25.6-11.466,25.6-25.6c0-14.134-11.466-25.6-25.6-25.6h-76.8v-51.2
				H375.467z M375.467,221.866c4.708,0,8.533,3.825,8.533,8.533s-3.825,8.533-8.533,8.533h-76.8v-17.067H375.467z M247.467,324.266
				h-25.6c-23.558,0-42.667-19.109-42.667-42.667s19.109-42.667,42.667-42.667h25.6V324.266z M17.067,290.134v-17.067h17.067v17.067
				H17.067z M51.2,298.668v-34.133v-18.069l17.067-2.133v20.2c0,4.713,3.82,8.533,8.533,8.533s8.533-3.82,8.533-8.533v-22.334
				l17.067-2.133v83.067l-17.067-2.133v-22.334c0-4.713-3.82-8.533-8.533-8.533s-8.533,3.82-8.533,8.533v20.2L51.2,316.733V298.668z
				 M119.467,326.699v-90.197c0-13.407,10.342-24.546,23.706-25.538l104.294-13.519v24.422h-25.6
				c-32.984,0-59.733,26.75-59.733,59.733s26.75,59.733,59.733,59.733h25.6v24.422l-103.827-13.478
				C129.808,351.243,119.467,340.106,119.467,326.699z M281.6,375.466c0,4.708-3.825,8.533-8.533,8.533
				c-4.708,0-8.533-3.825-8.533-8.533v-42.667v-102.4v-42.666v-0.001c0-4.708,3.825-8.533,8.533-8.533
				c4.708,0,8.533,3.825,8.533,8.533v25.6v34.133v68.267v34.133V375.466z M375.467,324.266c4.708,0,8.533,3.825,8.533,8.533
				c0,4.708-3.825,8.533-8.533,8.533h-76.8v-17.067H375.467z"/>
		</g>
	</g>
</g>
<g>
</g>
<g>
</g>
<g>
</g>
<g>
</g>
<g>
</g>
<g>
</g>
<g>
</g>
<g>
</g>
<g>
</g>
<g>
</g>
<g>
</g>
<g>
</g>
<g>
</g>
<g>
</g>
<g>
</g>
</svg>
