<svg width="26" height="50" viewBox="0 0 26 50" fill="none" xmlns="http://www.w3.org/2000/svg">
<path d="M13.0005 1.49951L13.0005 48.4995" stroke="white" stroke-width="2" stroke-linecap="round"/>
<path d="M13.001 48.5002L2.00031 38.7093" stroke="white" stroke-width="2" stroke-linecap="round"/>
<path d="M13.0005 48.4988L24.0011 38.7078" stroke="white" stroke-width="2" stroke-linecap="round"/>
</svg>
